<svg width="8" height="12" viewBox="0 0 8 12" fill="none" xmlns="http://www.w3.org/2000/svg">
<path d="M1.29002 2.12002L5.17002 6.00002L1.29002 9.88002C0.90002 10.27 0.90002 10.9 1.29002 11.29C1.68002 11.68 2.31002 11.68 2.70002 11.29L7.29002 6.70002C7.68002 6.31002 7.68002 5.68002 7.29002 5.29002L2.70002 0.70002C2.31002 0.310019 1.68002 0.310019 1.29002 0.70002C0.910019 1.09002 0.90002 1.73002 1.29002 2.12002Z" fill="#999999"/>
</svg>
