<svg width="16" height="19" viewBox="0 0 16 19" fill="none" xmlns="http://www.w3.org/2000/svg">
    <path fill-rule="evenodd" clip-rule="evenodd" d="M14.6827 5.97127L15.9843 18.3663C15.9947 18.4054 16 18.4463 16 18.4888C16 18.7709 15.7565 19 15.4561 19H15.4508H0.543906C0.390412 19 0.243832 18.9391 0.140792 18.8318C0.0377123 18.725 -0.012501 18.5821 0.00265541 18.4383L1.3117 5.97131C1.33936 5.70966 1.57334 5.5104 1.85299 5.5104H4.28735V3.48804C4.28735 1.56451 5.95155 0 7.99735 0C10.0429 0 11.7073 1.56448 11.7073 3.48804V5.51036H14.1414C14.4211 5.51036 14.6553 5.70962 14.6827 5.97127ZM7.99731 1.02269C6.55145 1.02269 5.37516 2.12883 5.37516 3.48804V5.5104H10.6195V3.48804C10.6195 2.12887 9.44316 1.02269 7.99731 1.02269ZM2.34588 6.53309H4.28731V7.56776C4.28731 7.84986 4.5309 8.07905 4.83125 8.07905C5.13165 8.07905 5.37516 7.84986 5.37516 7.56776V6.53309H10.6195V7.56776C10.6195 7.84986 10.863 8.07905 11.1633 8.07905C11.4637 8.07905 11.7072 7.84986 11.7072 7.56776V6.53309H13.6485L14.6382 15.958H1.35608L2.34588 6.53309ZM1.24874 16.9807L1.14409 17.9775H14.8506L14.7459 16.9807H1.24874Z" fill="white"/>
</svg>
