<svg width="14" height="14" viewBox="0 0 14 14" fill="none" xmlns="http://www.w3.org/2000/svg">
<g id="close">
<path id="Shape" d="M11.0834 3.73916L10.2609 2.91666L7.00002 6.1775L3.73919 2.91666L2.91669 3.73916L6.17752 7L2.91669 10.2608L3.73919 11.0833L7.00002 7.8225L10.2609 11.0833L11.0834 10.2608L7.82252 7L11.0834 3.73916Z" fill="white"/>
</g>
</svg>
